%YAML 1.1
%TAG !u! tag:unity3d.com,2011:
--- !u!1045 &1
EditorBuildSettings:
  m_ObjectHideFlags: 0
  serializedVersion: 2
  m_Scenes:
  - enabled: 1
    path: Assets/Samples/ARCore Extensions/1.37.0/Geospatial Sample/Scenes/Geospatial.unity
    guid: 1ed15e9657253406185e4b2c7c5a4fc4
  m_configObjects:
    UnityEditor.XR.ARCore.ARCoreSettings: {fileID: 11400000, guid: 3da1d467fb34b7f4cb126a08bb007f39,
      type: 2}
    UnityEditor.XR.ARKit.ARKitSettings: {fileID: 11400000, guid: b16d064d3d21a184181403bc5f3dfafc,
      type: 2}
    com.unity.xr.management.loader_settings: {fileID: 11400000, guid: 24f5e78bdb7ba6f4b89ef7a3ee887f8a,
      type: 2}
